{
	"process_id" : 9584,
	"version" : "2019.2.6f1",
	"app_path" : "C:/Program Files/Unity/Hub/Editor/2019.2.6f1/Editor/Unity.exe",
	"app_contents_path" : "C:/Program Files/Unity/Hub/Editor/2019.2.6f1/Editor/Data"
}